1950;событие 1 бла-бла-бла;
1991-06-01;какое-то событие 2;
2000-01-01;наступил миллениум, ура-ура-ура4;
1340;цветочек родился;
1806;покупка пончика;
2020;что-то большое;
2021;Неизбежное пришло;
1405;Картошка выросла;
2006;Утренник;
1786;Завтрак с блинчиками;
2000;Новый век наступил;3, 6 
1636;Волшебный закат;4
1200;Ветерок дунул;9
1999;Дыскотэка;3
